FACS of ABCB5+ limbal cells
…
# find markers for every cluster compared to all remaining cells, 
#report both positive and negative
limbus.markers <- FindAllMarkers(limbus.harmony, only.pos = TRUE, min.pct = 0.25, 
                                 logfc.threshold = 0.25)

## Calculating cluster 0
## Calculating cluster 1

limbus.markers %>% group_by(cluster) %>% top_n(n = 100, wt = avg_log2FC)

## # A tibble: 200 x 7
## # Groups:   cluster [2]
##        p_val avg_log2FC pct.1 pct.2 p_val_adj cluster gene  
##        <dbl>      <dbl> <dbl> <dbl>     <dbl> <fct>   <chr> 
##  1 1.78e-199       1.71 1     0.997 3.29e-195 0       GSTP1 
##  2 4.78e-195       2.50 1     0.896 8.81e-191 0       S100A4
##  3 3.30e-187       2.45 0.997 0.745 6.08e-183 0       CST3  
##  4 7.36e-185       1.74 1     1     1.36e-180 0       HSPB1 
##  5 1.87e-182       1.35 1     1     3.46e-178 0       TMSB4X
##  6 3.34e-182       1.85 0.998 0.91  6.17e-178 0       PPDPF 
##  7 2.69e-180       2.86 0.996 0.822 4.96e-176 0       ADIRF 
##  8 7.45e-172       2.17 0.926 0.13  1.38e-167 0       CLDN7 
##  9 4.26e-169       2.37 0.968 0.351 7.87e-165 0       LYPD3 
## 10 9.01e-168       1.92 0.997 0.838 1.66e-163 0       ELF3  
## #  with 190 more rows
…
